<?xml version="1.0" encoding="UTF-8" standalone="no"?>
<!-- Created with Inkscape (http://www.inkscape.org/) -->

<svg
   xmlns:dc="http://purl.org/dc/elements/1.1/"
   xmlns:cc="http://creativecommons.org/ns#"
   xmlns:rdf="http://www.w3.org/1999/02/22-rdf-syntax-ns#"
   xmlns:svg="http://www.w3.org/2000/svg"
   xmlns="http://www.w3.org/2000/svg"
   xmlns:xlink="http://www.w3.org/1999/xlink"
   xmlns:sodipodi="http://sodipodi.sourceforge.net/DTD/sodipodi-0.dtd"
   xmlns:inkscape="http://www.inkscape.org/namespaces/inkscape"
   width="210mm"
   height="297mm"
   viewBox="0 0 744.09448819 1052.3622047"
   id="svg2"
   version="1.1"
   inkscape:version="0.91 r13725"
   sodipodi:docname="repcaeLogo.svg"
   inkscape:export-filename="C:\Documents and Settings\Зенкин.USER\Рабочий стол\path4138.png"
   inkscape:export-xdpi="90"
   inkscape:export-ydpi="90">
  <defs
     id="defs4">
    <linearGradient
       inkscape:collect="always"
       id="linearGradient4206">
      <stop
         style="stop-color:#ff7f2a;stop-opacity:1;"
         offset="0"
         id="stop4208" />
      <stop
         style="stop-color:#ff9955;stop-opacity:1"
         offset="1"
         id="stop4210" />
    </linearGradient>
    <linearGradient
       inkscape:collect="always"
       id="linearGradient4198">
      <stop
         style="stop-color:#ff7f2a;stop-opacity:1"
         offset="0"
         id="stop4200" />
      <stop
         style="stop-color:#552200;stop-opacity:1"
         offset="1"
         id="stop4202" />
    </linearGradient>
    <linearGradient
       inkscape:collect="always"
       id="linearGradient4172">
      <stop
         style="stop-color:#ffccaa;stop-opacity:1"
         offset="0"
         id="stop4174" />
      <stop
         style="stop-color:#ff7f2a;stop-opacity:1"
         offset="1"
         id="stop4176" />
    </linearGradient>
    <linearGradient
       inkscape:collect="always"
       id="linearGradient4166">
      <stop
         style="stop-color:#008080;stop-opacity:1"
         offset="0"
         id="stop4168" />
      <stop
         style="stop-color:#00ff00;stop-opacity:1"
         offset="1"
         id="stop4170" />
    </linearGradient>
    <linearGradient
       inkscape:collect="always"
       id="linearGradient4150">
      <stop
         style="stop-color:#00ff00;stop-opacity:1"
         offset="0"
         id="stop4152" />
      <stop
         style="stop-color:#008000;stop-opacity:1"
         offset="1"
         id="stop4154" />
    </linearGradient>
    <linearGradient
       inkscape:collect="always"
       xlink:href="#linearGradient4150"
       id="linearGradient4156"
       x1="355.71429"
       y1="338.79077"
       x2="425"
       y2="205.93362"
       gradientUnits="userSpaceOnUse"
       gradientTransform="matrix(1.0032742,0,0,0.7399044,22.263757,65.403087)" />
    <linearGradient
       inkscape:collect="always"
       xlink:href="#linearGradient4166"
       id="linearGradient4164"
       x1="259.28571"
       y1="193.79077"
       x2="324.28571"
       y2="329.50507"
       gradientUnits="userSpaceOnUse"
       gradientTransform="matrix(1.0030925,0,0,0.73405261,-8.0606912,75.887607)" />
    <radialGradient
       inkscape:collect="always"
       xlink:href="#linearGradient4172"
       id="radialGradient4180"
       cx="362.5383"
       cy="406.51166"
       fx="362.5383"
       fy="406.51166"
       r="73.475255"
       gradientTransform="matrix(1.0865036,0.09986965,-0.06937095,0.44785836,-35.008632,205.48215)"
       gradientUnits="userSpaceOnUse" />
    <linearGradient
       inkscape:collect="always"
       xlink:href="#linearGradient4198"
       id="linearGradient4204"
       x1="332.14285"
       y1="475.93362"
       x2="305.71429"
       y2="502.36221"
       gradientUnits="userSpaceOnUse"
       gradientTransform="translate(4.2857143,20)" />
    <linearGradient
       inkscape:collect="always"
       xlink:href="#linearGradient4206"
       id="linearGradient4212"
       x1="326.42856"
       y1="363.07648"
       x2="355.71429"
       y2="362.36221"
       gradientUnits="userSpaceOnUse" />
  </defs>
  <sodipodi:namedview
     id="base"
     pagecolor="#ffffff"
     bordercolor="#666666"
     borderopacity="1.0"
     inkscape:pageopacity="0.0"
     inkscape:pageshadow="2"
     inkscape:zoom="1.4142136"
     inkscape:cx="317.59311"
     inkscape:cy="686.01898"
     inkscape:document-units="px"
     inkscape:current-layer="layer1"
     showgrid="false"
     inkscape:window-width="1280"
     inkscape:window-height="975"
     inkscape:window-x="-4"
     inkscape:window-y="-4"
     inkscape:window-maximized="1">
    <inkscape:grid
       type="xygrid"
       id="grid4216" />
  </sodipodi:namedview>
  <metadata
     id="metadata7">
    <rdf:RDF>
      <cc:Work
         rdf:about="">
        <dc:format>image/svg+xml</dc:format>
        <dc:type
           rdf:resource="http://purl.org/dc/dcmitype/StillImage" />
        <dc:title></dc:title>
      </cc:Work>
    </rdf:RDF>
  </metadata>
  <g
     inkscape:label="Layer 1"
     inkscape:groupmode="layer"
     id="layer1">
    <path
       style="fill:url(#linearGradient4204);fill-opacity:1;stroke:#000000;stroke-width:3;stroke-miterlimit:4;stroke-dasharray:none;stroke-dashoffset:0;stroke-opacity:1"
       d="m 298.81193,538.22725 c 6.45617,-15.59695 16.82886,-30.22426 19.7595,-46.57933 l 44.99999,-10e-6 c -25.79265,9.60592 -50.0933,26.52911 -64.75949,46.57934 z"
       id="path4138"
       inkscape:connector-curvature="0"
       sodipodi:nodetypes="cccc" />
    <path
       style="fill:url(#radialGradient4180);fill-opacity:1;stroke:#000000;stroke-width:3;stroke-miterlimit:4;stroke-dasharray:none;stroke-dashoffset:0;stroke-opacity:1"
       d="m 314.22134,389.54906 c 0,0 -47.2895,12.653 -47.25918,33.6477 0.0231,15.96576 35.08637,37.50891 35.08637,37.50891 l 70.88878,0.5516 c 0,0 41.92981,-20.18318 40.81477,-38.61211 -1.33755,-22.10637 -46.54315,-34.7509 -46.54315,-34.7509 z"
       id="path4140"
       inkscape:connector-curvature="0"
       sodipodi:nodetypes="csccscc" />
    <path
       style="fill:url(#linearGradient4212);fill-opacity:1;stroke:#000000;stroke-width:3;stroke-miterlimit:4;stroke-dasharray:none;stroke-dashoffset:0;stroke-opacity:1"
       d="m 321.42857,359.50506 0.71429,7.85714 42.85714,0 0,-10.71428 z"
       id="path4142"
       inkscape:connector-curvature="0" />
    <rect
       style="fill:none;fill-opacity:1;stroke:#000000;stroke-width:1;stroke-miterlimit:4;stroke-dasharray:none;stroke-dashoffset:0;stroke-opacity:1"
       id="rect4224"
       width="150"
       height="145"
       x="350"
       y="187.3622" />
    <path
       style="fill:url(#linearGradient4156);fill-opacity:1;stroke:#000000;stroke-width:3;stroke-miterlimit:4;stroke-dasharray:none;stroke-dashoffset:0;stroke-opacity:1"
       d="m 369.82662,324.00342 14.33249,-0.5285 16.48237,-39.10924 c 0,0 42.28084,20.08312 40.84759,17.4406 -1.43325,-2.64251 -26.12492,-20.52951 -23.64861,-32.76719 1.59557,-7.88513 12.14141,-17.39265 22.93199,-16.9121 11.20924,0.49918 17.19898,14.26958 17.19898,14.26958 0,0 25.55114,-6.80428 27.23173,-15.85509 2.77784,-14.95998 -9.8088,-31.21097 -24.91188,-41.4058 -12.89255,-8.70267 -31.26683,-16.77421 -49.61706,-12.50152 -13.76207,3.20437 -22.93199,21.66862 -22.93199,21.66862 0,0 29.57967,1.84086 30.81486,10.57007 1.33056,9.4031 -2.54537,22.75469 -15.04912,24.83964 -14.77443,2.46359 -32.24809,-14.26958 -32.24809,-14.26958 l -10.74937,21.66863 30.81484,13.74108 z"
       id="path4146"
       inkscape:connector-curvature="0"
       sodipodi:nodetypes="cccssscssscsscccc" />
    <rect
       style="fill:#ffffff;fill-opacity:1;stroke:#000000;stroke-width:1;stroke-miterlimit:4;stroke-dasharray:none;stroke-dashoffset:0;stroke-opacity:1"
       id="rect4214"
       width="160"
       height="140"
       x="210"
       y="202.3622"
       ry="0" />
    <rect
       style="fill:none;fill-opacity:1;stroke:#000000;stroke-width:1;stroke-miterlimit:4;stroke-dasharray:none;stroke-dashoffset:0;stroke-opacity:1"
       id="rect4218"
       width="110.00001"
       height="20.000015"
       x="290"
       y="352.36221" />
    <rect
       style="fill:none;fill-opacity:1;stroke:#000000;stroke-width:1;stroke-miterlimit:4;stroke-dasharray:none;stroke-dashoffset:0;stroke-opacity:1"
       id="rect4220"
       width="210"
       height="89.999992"
       x="240"
       y="382.36221" />
    <rect
       style="fill:none;fill-opacity:1;stroke:#000000;stroke-width:1;stroke-miterlimit:4;stroke-dasharray:none;stroke-dashoffset:0;stroke-opacity:1"
       id="rect4222"
       width="85"
       height="64.999992"
       x="290"
       y="482.36221" />
    <path
       style="fill:url(#linearGradient4164);fill-opacity:1;stroke:#000000;stroke-width:3;stroke-miterlimit:4;stroke-dasharray:none;stroke-dashoffset:0;stroke-opacity:1"
       d="m 316.51137,334.01568 14.32988,-0.52432 -12.18041,-34.08101 40.8402,-5.76756 c 0,0 1.33629,-22.31487 -12.18041,-28.31346 -13.99718,-6.21182 -20.60814,11.17831 -36.54122,7.86485 -14.30458,-2.9748 -20.77834,-25.16752 -20.77834,-25.16752 10.98843,-8.90871 28.38487,-7.94408 35.82473,-24.64319 -0.29412,-9.92168 -9.28794,-13.47702 -22.92783,-13.63241 -53.13903,2.66752 -72.91174,15.95118 -82.39689,32.50804 -4.15764,8.17993 10.69533,20.6361 23.64433,24.6432 l 17.19587,-15.72971 c 0,0 27.73158,18.0842 21.49484,29.88644 -3.30157,6.24779 -21.36335,2.32817 -23.64433,14.68105 -2.29756,12.44273 17.91237,28.83778 17.91237,28.83778 l 23.64432,-22.5459 z"
       id="path4148"
       inkscape:connector-curvature="0"
       sodipodi:nodetypes="ccccssccccccssccc" />
    <path
       style="fill:#ffffff;fill-opacity:1;stroke:#000000;stroke-width:1;stroke-miterlimit:4;stroke-dasharray:none;stroke-dashoffset:0;stroke-opacity:1"
       d="m 330,352.3622 -40,-10"
       id="path4226"
       inkscape:connector-curvature="0" />
    <path
       style="fill:#ffffff;fill-opacity:1;stroke:#000000;stroke-width:1;stroke-miterlimit:4;stroke-dasharray:none;stroke-dashoffset:0;stroke-opacity:1"
       d="m 370,352.3622 50,-20"
       id="path4228"
       inkscape:connector-curvature="0" />
    <path
       style="fill:#ffffff;fill-opacity:1;stroke:#000000;stroke-width:1;stroke-miterlimit:4;stroke-dasharray:none;stroke-dashoffset:0;stroke-opacity:1"
       d="m 340,372.3622 0,10"
       id="path4230"
       inkscape:connector-curvature="0" />
    <path
       style="fill:#ffffff;fill-opacity:1;stroke:#000000;stroke-width:1;stroke-miterlimit:4;stroke-dasharray:none;stroke-dashoffset:0;stroke-opacity:1"
       d="m 340,472.3622 0,10"
       id="path4232"
       inkscape:connector-curvature="0" />
  </g>
</svg>
